Using Principal Components to Predict All Star Status from Batting Statistics – Simon Christensen
…
batting_recipe <- recipe(
  ~.,data=batting_stats
) |> 
  update_role(Name,new_role="id") |>
  step_normalize(all_numeric_predictors()) |>
  step_pca(all_predictors(),num_comp = 5)
batting_prep <- batting_recipe |> prep()
batting_bake <- batting_prep |> bake(new_data=NULL)
batting_bake

# A tibble: 313 × 6
   Name             PC1       PC2     PC3    PC4    PC5
   <chr>          <dbl>     <dbl>   <dbl>  <dbl>  <dbl>
 1 nelsoncruz     -2.41  1.79      0.714  -0.164 -1.33 
 2 tylerwhite     -3.26  0.982    -0.0191 -0.511  0.631
 3 ronnyrodríguez  2.57  0.000348  1.21   -0.710 -0.449
 4 aaronjudge     -3.84  1.80     -0.655   1.57  -1.02 
 5 jeansegura     -1.30 -3.47      0.0797 -0.601 -0.839
 6 joséramírez    -4.63  0.520    -2.06    0.936  0.200
 7 adameaton      -1.97 -2.53     -0.280   1.35  -0.519
 8 ajosémartínez  -2.24 -1.35      1.94    0.359 -0.602
 9 ryanohearn     -4.37  2.96     -0.689  -0.670  1.04 
10 sandyleón       3.91  1.31      0.672  -0.563  0.665
# ℹ 303 more rows
…
# A tibble: 6 × 3
  term        estimate penalty
  <chr>          <dbl>   <dbl>
1 (Intercept)   -3.19  0.00001
2 PC1           -0.676 0.00001
3 PC2           -0.261 0.00001
4 PC3            0.118 0.00001
5 PC4            0.211 0.00001
6 PC5           -0.477 0.00001

log_pred <- augment(log_fit,new_data=batting_test)
log_pred

# A tibble: 135 × 18
   .pred_class .pred_No .pred_Yes Name        avg   slg   obp   ops bbrate krate
   <fct>          <dbl>     <dbl> <chr>     <dbl> <dbl> <dbl> <dbl>  <dbl> <dbl>
 1 No             0.971   0.0292  gregallen 0.257 0.343 0.31  0.653 0.0481 0.199
 2 No             0.695   0.305   wilsonra… 0.306 0.487 0.358 0.845 0.0769 0.192
 3 No             0.898   0.102   marktrum… 0.261 0.452 0.313 0.765 0.0670 0.243
 4 No             0.980   0.0201  yangervi… 0.226 0.378 0.277 0.655 0.0613 0.142
 5 No             0.976   0.0242  toddfraz… 0.213 0.39  0.303 0.693 0.102  0.237
 6 No             0.830   0.170   edwinenc… 0.246 0.474 0.336 0.81  0.109  0.228
 7 No             0.994   0.00584 victorre… 0.222 0.288 0.239 0.527 0.0228 0.210
 8 No             0.889   0.111   djlemahi… 0.276 0.428 0.321 0.749 0.0637 0.141
 9 No             0.921   0.0793  coreysea… 0.267 0.396 0.348 0.744 0.0957 0.148
10 No             0.846   0.154   shinsooc… 0.264 0.434 0.377 0.811 0.138  0.235
# ℹ 125 more rows
# ℹ 8 more variables: singlerate <dbl>, doublerate <dbl>, triplerate <dbl>,
#   hrrate <dbl>, rrate <dbl>, rbirate <dbl>, sbrate <dbl>, AllStar <fct>
…
